<?xml version="1.0" encoding="UTF-8" standalone="no"?>
<svg
   xmlns:dc="http://purl.org/dc/elements/1.1/"
   xmlns:cc="http://creativecommons.org/ns#"
   xmlns:rdf="http://www.w3.org/1999/02/22-rdf-syntax-ns#"
   xmlns:svg="http://www.w3.org/2000/svg"
   xmlns="http://www.w3.org/2000/svg"
   id="svg8"
   version="1.1"
   viewBox="0 0 26.458333 26.458333"
   height="100"
   width="100">
  <defs
     id="defs2" />
  <metadata
     id="metadata5">
    <rdf:RDF>
      <cc:Work
         rdf:about="">
        <dc:format>image/svg+xml</dc:format>
        <dc:type
           rdf:resource="http://purl.org/dc/dcmitype/StillImage" />
        <dc:title></dc:title>
      </cc:Work>
    </rdf:RDF>
  </metadata>
  <g
     id="layer1">
    <rect
       y="24.804688"
       x="0.89296883"
       height="1.3890625"
       width="24.672396"
       id="rect833"
       style="fill:#808080;stroke:none;stroke-width:3.437;stroke-linecap:round" />
    <path
       transform="scale(0.26458333)"
       d="M 51.826172,3.5 V 56.75 C 42.679101,54.817612 24.553987,46.663658 9.673828,63.5 5.4973678,67.068731 0.54074423,81.585829 1.1738281,97.25 H 98.826172 V 74 56.75 3.5 Z"
       style="fill:#502d16;stroke:none;stroke-width:11.0942;stroke-linecap:round"
       id="rect835" />
  </g>
</svg>
